^C:\USERS\TOM\DOCUMENTS\VISUAL STUDIO 2015\PROJECTS\REGISTER HOTKEY FOR 2\CPPREGISTERHOTKEY\CPPREGISTERHOTKEY.CPP
C:\USERS\TOM\DOCUMENTS\VISUAL STUDIO 2015\PROJECTS\REGISTER HOTKEY FOR 2\CPPREGISTERHOTKEY\RELEASE\VC140.PDB
C:\USERS\TOM\DOCUMENTS\VISUAL STUDIO 2015\PROJECTS\REGISTER HOTKEY FOR 2\CPPREGISTERHOTKEY\RELEASE\CPPREGISTERHOTKEY.OBJ
^C:\REPOS\PUBG-JUMPS-HOTKEY\CPPREGISTERHOTKEY\CPPREGISTERHOTKEY.CPP
C:\REPOS\PUBG-JUMPS-HOTKEY\CPPREGISTERHOTKEY\RELEASE\VC140.PDB
C:\REPOS\PUBG-JUMPS-HOTKEY\CPPREGISTERHOTKEY\RELEASE\CPPREGISTERHOTKEY.OBJ
